{
  "page": 2,
  "total_results": 400168,
  "total_pages": 20009,
  "results": [
    {
      "vote_count": 3078,
      "id": 297802,
      "video": false,
      "vote_average": 6.9,
      "title": "Aquaman",
      "popularity": 805.109,
      "poster_path": "/5Kg76ldv7VxeX9YlcQXiowHgdX6.jpg",
      "original_language": "en",
      "original_title": "Aquaman",
      "genre_ids": [
        28,
        14,
        878,
        12
      ],
      "backdrop_path": "/5A2bMlLfJrAfX9bqAibOL2gCruF.jpg",
      "adult": false,
      "overview": "Once home to the most advanced civilization on Earth, the city of Atlantis is now an underwater kingdom ruled by the power-hungry King Orm. With a vast army at his disposal, Orm plans to conquer the remaining oceanic people -- and then the surface world. Standing in his way is Aquaman, Orm's half-human, half-Atlantean brother and true heir to the throne. With help from royal counselor Vulko, Aquaman must retrieve the legendary Trident of Atlan and embrace his destiny as protector of the deep.",
      "release_date": "2018-12-07"
    },
    {
      "vote_count": 999,
      "id": 424783,
      "video": false,
      "vote_average": 6.5,
      "title": "Bumblebee",
      "popularity": 296.914,
      "poster_path": "/fw02ONlDhrYjTSZV8XO6hhU3ds3.jpg",
      "original_language": "en",
      "original_title": "Bumblebee",
      "genre_ids": [
        28,
        12,
        878
      ],
      "backdrop_path": "/hMANgfPHR1tRObNp2oPiOi9mMlz.jpg",
      "adult": false,
      "overview": "On the run in the year 1987, Bumblebee finds refuge in a junkyard in a small Californian beach town. Charlie, on the cusp of turning 18 and trying to find her place in the world, discovers Bumblebee, battle-scarred and broken.  When Charlie revives him, she quickly learns this is no ordinary yellow VW bug.",
      "release_date": "2018-12-15"
    },
    {
      "vote_count": 4208,
      "id": 424694,
      "video": false,
      "vote_average": 8.2,
      "title": "Bohemian Rhapsody",
      "popularity": 257.009,
      "poster_path": "/gbmkFWdtihe1VfydTDsieQ6VfGL.jpg",
      "original_language": "en",
      "original_title": "Bohemian Rhapsody",
      "genre_ids": [
        18,
        10402
      ],
      "backdrop_path": "/93xA62uLd5CwMOAs37eQ7vPc1iV.jpg",
      "adult": false,
      "overview": "Singer Freddie Mercury, guitarist Brian May, drummer Roger Taylor and bass guitarist John Deacon take the music world by storm when they form the rock 'n' roll band Queen in 1970. Hit songs become instant classics. When Mercury's increasingly wild lifestyle starts to spiral out of control, Queen soon faces its greatest challenge yet – finding a way to keep the band together amid the success and excess.",
      "release_date": "2018-10-24"
    },
    {
      "vote_count": 276,
      "id": 503314,
      "video": false,
      "vote_average": 7.5,
      "title": "Dragon Ball Super: Broly",
      "popularity": 209.298,
      "poster_path": "/f03YksE4NggUjG75toz4H1YAGRf.jpg",
      "original_language": "ja",
      "original_title": "ドラゴンボール超スーパー ブロリー",
      "genre_ids": [
        28,
        16,
        878
      ],
      "backdrop_path": "/6OTRuxpwUUGbmCX3MKP25dOmo59.jpg",
      "adult": false,
      "overview": "Earth is peaceful following the Tournament of Power. Realizing that the universes still hold many more strong people yet to see, Goku spends all his days training to reach even greater heights. Then one day, Goku and Vegeta are faced by a Saiyan called 'Broly' who they've never seen before. The Saiyans were supposed to have been almost completely wiped out in the destruction of Planet Vegeta, so what's this one doing on Earth? This encounter between the three Saiyans who have followed completely different destinies turns into a stupendous battle, with even Frieza (back from Hell) getting caught up in the mix.",
      "release_date": "2018-12-14"
    },
    {
      "vote_count": 807,
      "id": 480530,
      "video": false,
      "vote_average": 6.6,
      "title": "Creed II",
      "popularity": 205.19,
      "poster_path": "/v3QyboWRoA4O9RbcsqH8tJMe8EB.jpg",
      "original_language": "en",
      "original_title": "Creed II",
      "genre_ids": [
        18,
        28
      ],
      "backdrop_path": "/8yqLPNwNCtpOPc3XkOlkSMnghzw.jpg",
      "adult": false,
      "overview": "Follows Adonis Creed's life inside and outside of the ring as he deals with new found fame, issues with his family, and his continuing quest to become a champion.",
      "release_date": "2018-11-21"
    },
    {
      "vote_count": 67,
      "id": 522681,
      "video": false,
      "vote_average": 6.5,
      "title": "Escape Room",
      "popularity": 199.039,
      "poster_path": "/8yZAx7tlKRZIg7pJfaPhl00yHIQ.jpg",
      "original_language": "en",
      "original_title": "Escape Room",
      "genre_ids": [
        27,
        53,
        28
      ],
      "backdrop_path": "/9cmrRktcAmhteKMNRl2hU6rQzLJ.jpg",
      "adult": false,
      "overview": "Six strangers find themselves in circumstances beyond their control, and must use their wits to survive.",
      "release_date": "2019-01-03"
    },
    {
      "vote_count": 632,
      "id": 428078,
      "video": false,
      "vote_average": 6,
      "title": "Mortal Engines",
      "popularity": 190.13,
      "poster_path": "/gLhYg9NIvIPKVRTtvzCWnp1qJWG.jpg",
      "original_language": "en",
      "original_title": "Mortal Engines",
      "genre_ids": [
        878,
        28,
        12,
        14,
        53
      ],
      "backdrop_path": "/rxYG6Sj95as9rv9wKIHUx6ATWd3.jpg",
      "adult": false,
      "overview": "Set in a world many thousands of years in the future. Earth’s cities now roam the globe on huge wheels, devouring each other in a struggle for ever diminishing resources. On one of these massive Traction Cities, Tom Natsworthy has an unexpected encounter with a mysterious young woman from the Outlands who will change the course of his life forever.",
      "release_date": "2018-12-05"
    },
    {
      "vote_count": 406,
      "id": 401469,
      "video": false,
      "vote_average": 6.8,
      "title": "Widows",
      "popularity": 190.008,
      "poster_path": "/tvmPiTShsfp4vSUBFsCHYaX9M7i.jpg",
      "original_language": "en",
      "original_title": "Widows",
      "genre_ids": [
        80,
        18,
        53
      ],
      "backdrop_path": "/71OjxI27tK7kTIiPnMkdQDx14pe.jpg",
      "adult": false,
      "overview": "A police shootout leaves four thieves dead during an explosive armed robbery attempt in Chicago. Their widows have nothing in common except a debt left behind by their spouses' criminal activities. Hoping to forge a future on their own terms, they join forces to pull off a heist.",
      "release_date": "2018-11-06"
    },
    {
      "vote_count": 172,
      "id": 483906,
      "video": false,
      "vote_average": 6.5,
      "title": "Polar",
      "popularity": 172.028,
      "poster_path": "/qOBEpKVLl8Q9CZScbOcRRVISezV.jpg",
      "original_language": "en",
      "original_title": "Polar",
      "genre_ids": [
        28,
        80,
        35,
        18
      ],
      "backdrop_path": "/u8CP7EeWbYMlIVqEoKAt6OYsEe1.jpg",
      "adult": false,
      "overview": "When a retiring assassin realizes he is the target of a hit, he winds up back in the game going head to head with a gang of younger, ruthless killers.",
      "release_date": "2019-01-25"
    },
    {
      "vote_count": 3040,
      "id": 332562,
      "video": false,
      "vote_average": 7.5,
      "title": "A Star Is Born",
      "popularity": 169.781,
      "poster_path": "/wrFpXMNBRj2PBiN4Z5kix51XaIZ.jpg",
      "original_language": "en",
      "original_title": "A Star Is Born",
      "genre_ids": [
        18,
        10402,
        10749
      ],
      "backdrop_path": "/wqtaHWOEZ3rXDJ8c6ZZShulbo18.jpg",
      "adult": false,
      "overview": "Seasoned musician Jackson Maine discovers—and falls in love with—struggling artist Ally. She has just about given up on her dream to make it big as a singer—until Jack coaxes her into the spotlight. But even as Ally's career takes off, the personal side of their relationship is breaking down, as Jack fights an ongoing battle with his own internal demons.",
      "release_date": "2018-10-03"
    },
    {
      "vote_count": 270,
      "id": 504172,
      "video": false,
      "vote_average": 6.3,
      "title": "The Mule",
      "popularity": 168.38,
      "poster_path": "/t0idiLMalKMj2pLsvqHrOM4LPdQ.jpg",
      "original_language": "en",
      "original_title": "The Mule",
      "genre_ids": [
        80,
        18,
        53
      ],
      "backdrop_path": "/bkc4AY6FTa3yNqrshE9b1elDzPt.jpg",
      "adult": false,
      "overview": "A 90 year old horticulturalist and Korean War veteran is caught transporting $3 million worth of cocaine through Illinois for a Mexican drug cartel.",
      "release_date": "2018-12-14"
    },
    {
      "vote_count": 462,
      "id": 375588,
      "video": false,
      "vote_average": 5.8,
      "title": "Robin Hood",
      "popularity": 144.527,
      "poster_path": "/AiRfixFcfTkNbn2A73qVJPlpkUo.jpg",
      "original_language": "en",
      "original_title": "Robin Hood",
      "genre_ids": [
        12,
        28,
        53
      ],
      "backdrop_path": "/AuA50D7T7S7OEVcGo0ZKaMhERn0.jpg",
      "adult": false,
      "overview": "A war-hardened Crusader and his Moorish commander mount an audacious revolt against the corrupt English crown.",
      "release_date": "2018-11-20"
    },
    {
      "vote_count": 13,
      "id": 390634,
      "video": false,
      "vote_average": 4.8,
      "title": "Fate/stay night: Heaven’s Feel II. lost butterfly",
      "popularity": 138.227,
      "poster_path": "/t0jwlwFUrtkPJoq5JH9YrRVROXZ.jpg",
      "original_language": "ja",
      "original_title": "劇場版「Fate/stay night [Heaven's Feel] ⅠⅠ. lost butterfly」",
      "genre_ids": [
        16,
        28,
        14,
        12
      ],
      "backdrop_path": "/3haESpzscyP1pLl2BxQ9j5KK9cM.jpg",
      "adult": false,
      "overview": "Theatrical-release adaptation of the visual novel \"Fate/stay night\", following the third and final route. (Part 2 of a trilogy.)",
      "release_date": "2019-01-12"
    },
    {
      "vote_count": 671,
      "id": 360920,
      "video": false,
      "vote_average": 6.3,
      "title": "The Grinch",
      "popularity": 135.309,
      "poster_path": "/gpkHvkCtZOeCQ2DelnJ2LB1WjZ5.jpg",
      "original_language": "en",
      "original_title": "The Grinch",
      "genre_ids": [
        16,
        10751,
        35,
        14
      ],
      "backdrop_path": "/juc9wt7Eh2IarLL5S1yQ1a21O1A.jpg",
      "adult": false,
      "overview": "The Grinch hatches a scheme to ruin Christmas when the residents of Whoville plan their annual holiday celebration.",
      "release_date": "2018-11-08"
    },
    {
      "vote_count": 851,
      "id": 450465,
      "video": false,
      "vote_average": 6.8,
      "title": "Glass",
      "popularity": 133.566,
      "poster_path": "/svIDTNUoajS8dLEo7EosxvyAsgJ.jpg",
      "original_language": "en",
      "original_title": "Glass",
      "genre_ids": [
        53,
        27,
        9648,
        18
      ],
      "backdrop_path": "/ngBFDOsx13sFXiMweDoL54XYknR.jpg",
      "adult": false,
      "overview": "In a series of escalating encounters, security guard David Dunn uses his supernatural abilities to track Kevin Wendell Crumb, a disturbed man who has twenty-four personalities. Meanwhile, the shadowy presence of Elijah Price emerges as an orchestrator who holds secrets critical to both men.",
      "release_date": "2019-01-16"
    },
    {
      "vote_count": 1370,
      "id": 324857,
      "video": false,
      "vote_average": 8.5,
      "title": "Spider-Man: Into the Spider-Verse",
      "popularity": 128.098,
      "poster_path": "/laMM4lpQSh5z6KIBPwWogkjzBVQ.jpg",
      "original_language": "en",
      "original_title": "Spider-Man: Into the Spider-Verse",
      "genre_ids": [
        28,
        12,
        16,
        878,
        35
      ],
      "backdrop_path": "/7d6EY00g1c39SGZOoCJ5Py9nNth.jpg",
      "adult": false,
      "overview": "Miles Morales is juggling his life between being a high school student and being a spider-man. When Wilson \"Kingpin\" Fisk uses a super collider, others from across the Spider-Verse are transported to this dimension.",
      "release_date": "2018-12-07"
    },
    {
      "vote_count": 246,
      "id": 446807,
      "video": false,
      "vote_average": 5.8,
      "title": "The Girl in the Spider's Web",
      "popularity": 110.808,
      "poster_path": "/w4ibr8R702DCjwYniry1D1XwQXj.jpg",
      "original_language": "en",
      "original_title": "The Girl in the Spider's Web",
      "genre_ids": [
        18,
        53,
        9648,
        80,
        28
      ],
      "backdrop_path": "/r0ljJIPBGsGdpeDdlHpzCiNnxiB.jpg",
      "adult": false,
      "overview": "In Stockholm, Sweden, hacker Lisbeth Salander is hired by Frans Balder, a computer engineer, to retrieve a program that he believes it is too dangerous to exist.",
      "release_date": "2018-10-26"
    },
    {
      "vote_count": 3097,
      "id": 338952,
      "video": false,
      "vote_average": 6.9,
      "title": "Fantastic Beasts: The Crimes of Grindelwald",
      "popularity": 107.868,
      "poster_path": "/kQKcbJ9uYkTQql2R8L4jTUz7l90.jpg",
      "original_language": "en",
      "original_title": "Fantastic Beasts: The Crimes of Grindelwald",
      "genre_ids": [
        10751,
        14,
        12
      ],
      "backdrop_path": "/wDN3FIcQQ1HI7mz1OOKYHSQtaiE.jpg",
      "adult": false,
      "overview": "Gellert Grindelwald has escaped imprisonment and has begun gathering followers to his cause—elevating wizards above all non-magical beings. The only one capable of putting a stop to him is the wizard he once called his closest friend, Albus Dumbledore. However, Dumbledore will need to seek help from the wizard who had thwarted Grindelwald once before, his former student Newt Scamander, who agrees to help, unaware of the dangers that lie ahead. Lines are drawn as love and loyalty are tested, even among the truest friends and family, in an increasingly divided wizarding world.",
      "release_date": "2018-11-14"
    },
    {
      "vote_count": 11061,
      "id": 299536,
      "video": false,
      "vote_average": 8.3,
      "title": "Avengers: Infinity War",
      "popularity": 100.292,
      "poster_path": "/7WsyChQLEftFiDOVTGkv3hFpyyt.jpg",
      "original_language": "en",
      "original_title": "Avengers: Infinity War",
      "genre_ids": [
        12,
        28,
        14
      ],
      "backdrop_path": "/bOGkgRGdhrBYJSLpXaxhXVstddV.jpg",
      "adult": false,
      "overview": "As the Avengers and their allies have continued to protect the world from threats too large for any one hero to handle, a new danger has emerged from the cosmic shadows: Thanos. A despot of intergalactic infamy, his goal is to collect all six Infinity Stones, artifacts of unimaginable power, and use them to inflict his twisted will on all of reality. Everything the Avengers have fought for has led up to this moment - the fate of Earth and existence itself has never been more uncertain.",
      "release_date": "2018-04-25"
    },
    {
      "vote_count": 724,
      "id": 400650,
      "video": false,
      "vote_average": 6.8,
      "title": "Mary Poppins Returns",
      "popularity": 99.319,
      "poster_path": "/uTVGku4LibMGyKgQvjBtv3OYfAX.jpg",
      "original_language": "en",
      "original_title": "Mary Poppins Returns",
      "genre_ids": [
        14,
        10751,
        35
      ],
      "backdrop_path": "/cwiJQXezWz876K3jS57Sq56RYCZ.jpg",
      "adult": false,
      "overview": "In Depression-era London, a now-grown Jane and Michael Banks, along with Michael's three children, are visited by the enigmatic Mary Poppins following a personal loss. Through her unique magical skills, and with the aid of her friend Jack, she helps the family rediscover the joy and wonder missing in their lives.",
      "release_date": "2018-12-19"
    }
  ]
}